{
	"partitions" : [
		{
			"name" : "Top",
			"pins" : [
				{
					"name" : "o_res[0]",
					"strict" : false
				},
				{
					"name" : "o_res[1]",
					"strict" : false
				},
				{
					"name" : "o_res[2]",
					"strict" : false
				},
				{
					"name" : "o_res[3]",
					"strict" : false
				},
				{
					"name" : "o_overflow",
					"strict" : false
				},
				{
					"name" : "i_num1[0]",
					"strict" : false
				},
				{
					"name" : "i_num2[0]",
					"strict" : false
				},
				{
					"name" : "i_sign",
					"strict" : false
				},
				{
					"name" : "i_num2[1]",
					"strict" : false
				},
				{
					"name" : "i_num1[1]",
					"strict" : false
				},
				{
					"name" : "i_num1[2]",
					"strict" : false
				},
				{
					"name" : "i_num2[2]",
					"strict" : false
				},
				{
					"name" : "i_num1[3]",
					"strict" : false
				},
				{
					"name" : "i_num2[3]",
					"strict" : false
				}
			]
		}
	]
}